NYCRestaurant_Inspection - 3 Results
…
These are top20 lowest critical flag proportion restaurants among restaurants whose total inspection cases are above 10 for the last three years.

Code

#mean of the critical flag proportion for all inspected restaurants
mean(subset7$cf_prop)

[1] 0.5042503

Code

subset7 %>%
  arrange(desc(Critical))

# A tibble: 22,178 × 6
# Groups:   DBA [22,178]
   DBA                        Critical Not_Critical Not_Applicable Total cf_prop
   <chr>                         <dbl>        <dbl>          <dbl> <dbl>   <dbl>
 1 DUNKIN                         1278         1271             33  2582   0.495
 2 SUBWAY                          779          747             11  1537   0.507
 3 MCDONALD'S                      492          558              8  1058   0.465
 4 STARBUCKS                       444          731             14  1189   0.373
 5 KENNEDY FRIED CHICKEN           375          341              9   725   0.517
 6 BURGER KING                     307          310              9   626   0.490
 7 POPEYES                         293          378              7   678   0.432
 8 CROWN FRIED CHICKEN             264          201              5   470   0.562
 9 GOLDEN KRUST CARIBBEAN BA…      251          251              5   507   0.495
10 DUNKIN'                         205          229              2   436   0.470
# ℹ 22,168 more rows
…
subset8 <- data %>%
  drop_na(DBA, SCORE) %>%
  filter(GRADE %in% c("A", "B", "C")) %>%
  group_by(DBA) %>%
  dplyr::summarise(cases = n(), avg_score = mean(SCORE)) %>%
  arrange(desc(avg_score)) 

Code

subset8 %>%
  filter(cases > 10) %>%
  select(DBA, avg_score) 

# A tibble: 750 × 2
   DBA                   avg_score
   <chr>                     <dbl>
 1 NEW RED LANTERN            88  
 2 SPICY PALACE               85  
 3 TWIN THUMB RESTAURANT      82.4
 4 PI GREEK BAKERIE           79.4
 5 GAMMEEOK                   79  
 6 ASIAN FOOD LTD             71.2
 7 HUNDRED TASTE              70.4
 8 GOTTA GETTA BAGEL          66  
 9 SLICE                      65  
10 CAFFE NAPOLI               61.5
# ℹ 740 more rows
…
